Testing a citizen science App with the SAEON Graduate Student Network
…
The VeldWatch App uploads the observation data directly into a Google Sheet in my GDrive (and the labeled photos into a folder), so it’s easiest if we can call the data directly from the online sheet rather than manually sharing and downloading the sheet every time. To do this, I use library(googlesheets) developed by Jenny Bryan and Joanna Zhao. Check out their tutorial for more of the basics.

I’ve shared the sheet publically so you should just be able to access it, but you may get asked to authenticate R accessing your Google Sheets the first time you use this code. If googlesheets doesn’t work for you, you can access the spreadsheet here, download as .xlsx or .csv and read into R as you normally would.

Here we extract the google sheet key from the shared URL link, “register the key” (needed for accessing the spreadsheet), download the data and take a quick look at it.

key <- extract_key_from_url("https://docs.google.com/spreadsheets/d/1dDOo-nizXC1XDECPkXts2VloDaObTuNwxPBhYJFNLdo/edit?usp=sharing") #extract the google sheet key from a shared URL

dat <- key %>% gs_key(verbose = FALSE) %>% gs_read(ws=1, verbose = FALSE) #register the key and download the data in the first worksheet

dat

## # A tibble: 36 x 21
##    TimeStamp `Radius assessed` `Land cover`
##       <time>             <chr>        <chr>
##  1  10:05:22               15m      Natural
##  2  10:39:13               15m      Natural
##  3  10:41:53               15m      Natural
##  4  10:44:12               15m      Natural
##  5  09:03:30              100m Near natural
##  6  10:41:05               15m      Natural
##  7  08:33:09              100m Near natural
##  8  08:34:33              100m Near natural
##  9  08:42:10                5m Near natural
## 10  08:49:09              100m Near natural
## # ... with 26 more rows, and 18 more variables: Impact <chr>, `Alien grass
## #   density` <chr>, `No of alien plants in search radius` <chr>, `Clearing
## #   intensity` <lgl>, `No of dead plants in search radius` <chr>, `Size of
## #   land/rock slide` <lgl>, `Vegetation removal` <chr>, `Suggested species
## #   or common name` <chr>, Comment <chr>, `Phone location` <chr>, `Photo
## #   A` <chr>, `Photo B` <chr>, `Photo C` <chr>, `Photo D` <chr>,
## #   Geolocation <chr>, Date <chr>, Time <time>, Test <lgl>
…
