Weather Data!
…
You can now query this database using the meteo_nearby_stations() function, which allows you to find all stations within a certain radius of a coordinate or the closest x stations. Here are the closest stations to Cape Point lighthouse.

lat_lon_df <- data.frame(id = "somewhere",
                         latitude = -34.35,
                         longitude = 18.48)
nearby_stations <-  meteo_nearby_stations(lat_lon_df = lat_lon_df,
                    station_data = station_data, radius = 100)

nearby_stations$somewhere

## # A tibble: 23 x 5
##    id          name                      latitude longitude distance
##    <chr>       <chr>                        <dbl>     <dbl>    <dbl>
##  1 SF000047220 GROOT CONSTANTIA             -34.0      18.4     36.0
##  2 SF000213300 EERSTERIVIER (BOS)           -34.0      18.7     41.0
##  3 SF000206890 TABLE.MTN WOODHEAD TUNNEL    -34.0      18.4     42.2
##  4 SFM00068816 CAPE TOWN INTL               -34.0      18.6     44.3
##  5 SF000207470 TABLE.MTN PLATTEKLIP         -34.0      18.4     44.8
##  6 SF000208660 ROYAL OBSERVATORY            -33.9      18.5     46.7
##  7 SF000207760 CAPE TOWN FIRE STATION       -33.9      18.4     46.9
##  8 SF000207460 TABL.MTN MOLTENO RSV         -33.9      18.4     47.0
##  9 SF000210550 CAPE TOWN MAITLAND (CEM)     -33.9      18.5     48.0
## 10 SF000216550 STELLENBOSCH (TNK)           -33.9      18.9     58.9
## # … with 13 more rows
…
